HCHC value=045704656 1463128084000000000
HCHP value=058355289 1463128084000000000
PTEC value=1 1463128084000000000
IINST1 value=001 1463128084000000000
IINST2 value=000 1463128084000000000
IINST3 value=002 1463128084000000000
IMAX1 value=031 1463128084000000000
IMAX2 value=037 1463128084000000000
IMAX3 value=039 1463128084000000000
PAPP value=00680 1463128084000000000
PMAX value=17270 1463128084000000000
