HCHC value=045718339 1463170264000000000
HCHP value=058364860 1463170264000000000
PTEC value=0 1463170264000000000
IINST1 value=004 1463170264000000000
IINST2 value=007 1463170264000000000
IINST3 value=014 1463170264000000000
IMAX1 value=031 1463170264000000000
IMAX2 value=037 1463170264000000000
IMAX3 value=039 1463170264000000000
PAPP value=06200 1463170264000000000
PMAX value=17270 1463170264000000000
