HCHC value=045702954 1463111163000000000
HCHP value=058350402 1463111163000000000
PTEC value=0 1463111163000000000
IINST1 value=001 1463111163000000000
IINST2 value=000 1463111163000000000
IINST3 value=003 1463111163000000000
IMAX1 value=031 1463111163000000000
IMAX2 value=037 1463111163000000000
IMAX3 value=039 1463111163000000000
PAPP value=00880 1463111163000000000
PMAX value=17270 1463111163000000000
