HCHC value=045714247 1463155864000000000
HCHP value=058360907 1463155864000000000
PTEC value=1 1463155864000000000
IINST1 value=001 1463155864000000000
IINST2 value=001 1463155864000000000
IINST3 value=006 1463155864000000000
IMAX1 value=031 1463155864000000000
IMAX2 value=037 1463155864000000000
IMAX3 value=039 1463155864000000000
PAPP value=01630 1463155864000000000
PMAX value=17270 1463155864000000000
