HCHC value=045699423 1463107143000000000
HCHP value=058350402 1463107143000000000
PTEC value=0 1463107143000000000
IINST1 value=004 1463107143000000000
IINST2 value=005 1463107143000000000
IINST3 value=013 1463107143000000000
IMAX1 value=031 1463107143000000000
IMAX2 value=037 1463107143000000000
IMAX3 value=039 1463107143000000000
PAPP value=05220 1463107143000000000
PMAX value=17270 1463107143000000000
