HCHC value=045717616 1463169724000000000
HCHP value=058364860 1463169724000000000
PTEC value=0 1463169724000000000
IINST1 value=004 1463169724000000000
IINST2 value=007 1463169724000000000
IINST3 value=008 1463169724000000000
IMAX1 value=031 1463169724000000000
IMAX2 value=037 1463169724000000000
IMAX3 value=039 1463169724000000000
PAPP value=04330 1463169724000000000
PMAX value=17270 1463169724000000000
