HCHC value=045701981 1463109784000000000
HCHP value=058350402 1463109784000000000
PTEC value=0 1463109784000000000
IINST1 value=001 1463109784000000000
IINST2 value=002 1463109784000000000
IINST3 value=012 1463109784000000000
IMAX1 value=031 1463109784000000000
IMAX2 value=037 1463109784000000000
IMAX3 value=039 1463109784000000000
PAPP value=03400 1463109784000000000
PMAX value=17270 1463109784000000000
