HCHC value=045702354 1463110323000000000
HCHP value=058350402 1463110323000000000
PTEC value=0 1463110323000000000
IINST1 value=001 1463110323000000000
IINST2 value=001 1463110323000000000
IINST3 value=003 1463110323000000000
IMAX1 value=031 1463110323000000000
IMAX2 value=037 1463110323000000000
IMAX3 value=039 1463110323000000000
PAPP value=01100 1463110323000000000
PMAX value=17270 1463110323000000000
