HCHC value=045714247 1463165524000000000
HCHP value=058364235 1463165524000000000
PTEC value=1 1463165524000000000
IINST1 value=002 1463165524000000000
IINST2 value=003 1463165524000000000
IINST3 value=005 1463165524000000000
IMAX1 value=031 1463165524000000000
IMAX2 value=037 1463165524000000000
IMAX3 value=039 1463165524000000000
PAPP value=02380 1463165524000000000
PMAX value=17270 1463165524000000000
