HCHC value=045694350 1463102584000000000
HCHP value=058350026 1463102584000000000
PTEC value=1 1463102584000000000
IINST1 value=001 1463102584000000000
IINST2 value=001 1463102584000000000
IINST3 value=003 1463102584000000000
IMAX1 value=031 1463102584000000000
IMAX2 value=037 1463102584000000000
IMAX3 value=039 1463102584000000000
PAPP value=01020 1463102584000000000
PMAX value=17270 1463102584000000000
