HCHC value=045703685 1463113323000000000
HCHP value=058350402 1463113323000000000
PTEC value=0 1463113323000000000
IINST1 value=001 1463113323000000000
IINST2 value=001 1463113323000000000
IINST3 value=002 1463113323000000000
IMAX1 value=031 1463113323000000000
IMAX2 value=037 1463113323000000000
IMAX3 value=039 1463113323000000000
PAPP value=00850 1463113323000000000
PMAX value=17270 1463113323000000000
