HCHC value=045715493 1463167984000000000
HCHP value=058364860 1463167984000000000
PTEC value=0 1463167984000000000
IINST1 value=004 1463167984000000000
IINST2 value=007 1463167984000000000
IINST3 value=010 1463167984000000000
IMAX1 value=031 1463167984000000000
IMAX2 value=037 1463167984000000000
IMAX3 value=039 1463167984000000000
PAPP value=04860 1463167984000000000
PMAX value=17270 1463167984000000000
