HCHC value=045720592 1463172423000000000
HCHP value=058365091 1463172423000000000
PTEC value=1 1463172423000000000
IINST1 value=001 1463172423000000000
IINST2 value=003 1463172423000000000
IINST3 value=004 1463172423000000000
IMAX1 value=031 1463172423000000000
IMAX2 value=037 1463172423000000000
IMAX3 value=039 1463172423000000000
PAPP value=01910 1463172423000000000
PMAX value=17270 1463172423000000000
