HCHC value=045720068 1463171583000000000
HCHP value=058364860 1463171583000000000
PTEC value=0 1463171583000000000
IINST1 value=004 1463171583000000000
IINST2 value=007 1463171583000000000
IINST3 value=013 1463171583000000000
IMAX1 value=031 1463171583000000000
IMAX2 value=037 1463171583000000000
IMAX3 value=039 1463171583000000000
PAPP value=05640 1463171583000000000
PMAX value=17270 1463171583000000000
