HCHC value=045699729 1463107383000000000
HCHP value=058350402 1463107383000000000
PTEC value=0 1463107383000000000
IINST1 value=004 1463107383000000000
IINST2 value=005 1463107383000000000
IINST3 value=011 1463107383000000000
IMAX1 value=031 1463107383000000000
IMAX2 value=037 1463107383000000000
IMAX3 value=039 1463107383000000000
PAPP value=04860 1463107383000000000
PMAX value=17270 1463107383000000000
