HCHC value=045720592 1463171944000000000
HCHP value=058364865 1463171944000000000
PTEC value=1 1463171944000000000
IINST1 value=001 1463171944000000000
IINST2 value=004 1463171944000000000
IINST3 value=004 1463171944000000000
IMAX1 value=031 1463171944000000000
IMAX2 value=037 1463171944000000000
IMAX3 value=039 1463171944000000000
PAPP value=02000 1463171944000000000
PMAX value=17270 1463171944000000000
