HCHC value=045708517 1463141704000000000
HCHP value=058358888 1463141704000000000
PTEC value=0 1463141704000000000
IINST1 value=004 1463141704000000000
IINST2 value=004 1463141704000000000
IINST3 value=007 1463141704000000000
IMAX1 value=031 1463141704000000000
IMAX2 value=037 1463141704000000000
IMAX3 value=039 1463141704000000000
PAPP value=03430 1463141704000000000
PMAX value=17270 1463141704000000000
