HCHC value=045704656 1463126703000000000
HCHP value=058354746 1463126703000000000
PTEC value=1 1463126703000000000
IINST1 value=001 1463126703000000000
IINST2 value=001 1463126703000000000
IINST3 value=005 1463126703000000000
IMAX1 value=031 1463126703000000000
IMAX2 value=037 1463126703000000000
IMAX3 value=039 1463126703000000000
PAPP value=01430 1463126703000000000
PMAX value=17270 1463126703000000000
