HCHC value=045714247 1463158084000000000
HCHP value=058361526 1463158084000000000
PTEC value=1 1463158084000000000
IINST1 value=001 1463158084000000000
IINST2 value=001 1463158084000000000
IINST3 value=002 1463158084000000000
IMAX1 value=031 1463158084000000000
IMAX2 value=037 1463158084000000000
IMAX3 value=039 1463158084000000000
PAPP value=00870 1463158084000000000
PMAX value=17270 1463158084000000000
