HCHC value=045698147 1463106243000000000
HCHP value=058350402 1463106243000000000
PTEC value=0 1463106243000000000
IINST1 value=004 1463106243000000000
IINST2 value=005 1463106243000000000
IINST3 value=016 1463106243000000000
IMAX1 value=031 1463106243000000000
IMAX2 value=037 1463106243000000000
IMAX3 value=039 1463106243000000000
PAPP value=05760 1463106243000000000
PMAX value=17270 1463106243000000000
